\relax 
\citation{monroy_juan_2019}
\citation{monroy_juan_2019}
\citation{monroy_juan_2019}
\citation{T-ESPE-053581}
\citation{monroy_juan_2019}
\citation{rojasimplementacion}
\newlabel{usepackage}{{}{}}
\newlabel{sec:titulo}{{}{}}
\newlabel{sec:resumen}{{}{}}
\@writefile{toc}{\contentsline {section}{\numberline {I}\textbf  {Introducci\'on}}{}{}\protected@file@percent }
\newlabel{sec:introduccion}{{I}{}}
\@writefile{toc}{\contentsline {section}{\numberline {II}\textbf  {Marco Te\'orico}}{}{}\protected@file@percent }
\newlabel{sec:marcoteorico}{{II}{}}
\@writefile{toc}{\contentsline {subsubsection}{\numberline {\mbox  {II-}1}\textbf  {Sensor de Movimiento MPU 6050}}{}{}\protected@file@percent }
\@writefile{lof}{\contentsline {figure}{\numberline {1}{\ignorespaces MPU 6050}}{}{}\protected@file@percent }
\newlabel{fig:MPU}{{1}{}}
\@writefile{toc}{\contentsline {paragraph}{\numberline {\mbox  {II-}1a}\textbf  {Aceler\'ometro}}{}{}\protected@file@percent }
\newlabel{eq:Y}{{1}{}}
\newlabel{eq:X}{{2}{}}
\@writefile{toc}{\contentsline {paragraph}{\numberline {\mbox  {II-}1b}\textbf  {Giroscopio}}{}{}\protected@file@percent }
\newlabel{eq:A1}{{3}{}}
\newlabel{eq:A1}{{4}{}}
\newlabel{eq:A1}{{5}{}}
\@writefile{toc}{\contentsline {subsubsection}{\numberline {\mbox  {II-}2}\textbf  {Tarjeta STM32}}{}{}\protected@file@percent }
\citation{rojasimplementacion}
\bibstyle{IEEEtran}
\bibdata{Referencia}
\@writefile{lof}{\contentsline {figure}{\numberline {2}{\ignorespaces STM32F746}}{}{}\protected@file@percent }
\newlabel{fig:STM32}{{2}{}}
\@writefile{toc}{\contentsline {subsubsection}{\numberline {\mbox  {II-}3}\textbf  {Lectura del Sensor}}{}{}\protected@file@percent }
\@writefile{toc}{\contentsline {paragraph}{\numberline {\mbox  {II-}3a}\textbf  {Recepci\'on de datos }}{}{}\protected@file@percent }
\@writefile{lot}{\contentsline {table}{\numberline {I}{\ignorespaces Tabla de Lectura}}{}{}\protected@file@percent }
\@writefile{toc}{\contentsline {subsubsection}{\numberline {\mbox  {II-}4}\textbf  {Comunicaci\'on I2C }}{}{}\protected@file@percent }
\@writefile{toc}{\contentsline {section}{\numberline {III}\textbf  {Conclusiones}}{}{}\protected@file@percent }
\newlabel{sec:conclusiones}{{III}{}}
\@writefile{toc}{\contentsline {section}{Referencias}{}{}\protected@file@percent }
\gdef \@abspage@last{2}
